Vaping Behaviors in American Youth
…
nyts_data %>%
  group_by(year) %>%
  group_modify(~ surveyMeanA(.x))

# A tibble: 30 x 5
# Groups:   year [5]
    year Type                `Percentage of students` Estimate User   
   <dbl> <chr>                                  <dbl> <chr>    <chr>  
 1  2015 tobacco_ever                            37.2 Mean     Ever   
 2  2015 tobacco_ever_low                        34.4 Lower    Ever   
 3  2015 tobacco_ever_upp                        40.0 Upper    Ever   
 4  2015 tobacco_current                         18.0 Mean     Current
 5  2015 tobacco_current_low                     16.2 Lower    Current
 6  2015 tobacco_current_upp                     19.9 Upper    Current
 7  2016 tobacco_ever                            33.8 Mean     Ever   
 8  2016 tobacco_ever_low                        31.9 Lower    Ever   
 9  2016 tobacco_ever_upp                        35.8 Upper    Ever   
10  2016 tobacco_current                         14.8 Mean     Current
# ... with 20 more rows
…
